<?xml version="1.0" encoding="utf-8"?>
<!-- Generator: Adobe Illustrator 22.1.0, SVG Export Plug-In . SVG Version: 6.00 Build 0)  -->
<svg version="1.1" id="Layer_1" xmlns="http://www.w3.org/2000/svg" xmlns:xlink="http://www.w3.org/1999/xlink" x="0px" y="0px"
	 viewBox="0 0 512 512" style="enable-background:new 0 0 512 512;" xml:space="preserve">
<style type="text/css">
	.st0{fill:#0073AA;}
</style>
<title></title>
<g id="icomoon-ignore">
</g>
<path class="st0" d="M432,0c44.2,0,80,35.8,80,80c0,18-6,34.6-16,48l-32,32L352,48l32-32C397.4,6,414,0,432,0z M32,368L0,512l144-32
	l296-296L328,72L32,368z M357.8,181.8l-224,224l-27.6-27.6l224-224L357.8,181.8z"/>
</svg>
